---- setup hash ---- 
File: E:\elementium\browser\win\build\..\daily_build\1.0.0.136_x64_release_mining\setup.exe
Hash: f4992fd1790662dacce91c8ec39195d3124504e4c46b7d0e4a655c28827ebe9a
Size: 2045712
---- mini installer hash ---- 
File: E:\elementium\browser\win\build\..\daily_build\1.0.0.136_x64_release_mining\mini_installer.exe
Hash: 18dcd53ffc797a66bc7d60ffa6881658904440cb21e6a16a8c267e5af6042d7d
Size: 73205008
